{
	"pages": [{
			"path": "pages/home/home",
			"style": {
				"navigationBarTitleText": "电商平台",
				"enablePullDownRefresh": true
			}
		},
		{
			"path": "pages/classify/classify",
			"style": {
				"navigationBarTitleText": "分类商品",
				"enablePullDownRefresh": false
			}
		},
		{
			"path": "pages/broadcast/broadcast",
			"style": {
				"navigationBarTitleText": "直播购物",
				"enablePullDownRefresh": false
			}
		},
		{
			"path": "pages/shop/shop",
			"style": {
				"navigationBarTitleText": "购物车",
				"enablePullDownRefresh": false
			}
		},
		{
			"path": "pages/my/my",
			"style": {
				"navigationBarTitleText": "个人中心",
				"enablePullDownRefresh": false
			}
		},
		{
			"path": "pages/recommended/recommended",
			"style": {
				"navigationBarTitleText": "更多宝贝",
				"enablePullDownRefresh": true,
				"onReachBottomDistance": 100
			}

		}, {
			"path": "pages/mall hot buy/mall hot buy",
			"style": {
				"navigationBarTitleText": "商场热卖",
				"enablePullDownRefresh": true,
				"onReachBottomDistance": 100
			}

		},
		{
			"path": "pages/login/login",
			"style": {
				"navigationBarTitleText": "电商平台",
				"enablePullDownRefresh": false
			}
		},
		{

			"path": "pages/announcement/announcement",
			"style": {
				"navigationBarTitleText": "最新公告",
				"enablePullDownRefresh": false
			}
		}, {
			"path": "pages/announ/announ",
			"style": {
				"navigationBarTitleText": "最新公告",
				"enablePullDownRefresh": false
			}
		}, {
			"path": "pages/everyday/everyday",
			"style": {
				"navigationBarTitleText": "新品推荐",
				"enablePullDownRefresh": false
			}
		}, {
			"path": "pages/madgrab/madgrab",
			"style": {
				"navigationBarTitleText": "每日疯抢",
				"enablePullDownRefresh": false
			}
		}, {
			"path": "pages/preferential/preferential",
			"style": {
				"navigationBarTitleText": "限时特惠",
				"enablePullDownRefresh": false
			}
		},
		{
			"path": "pages/addr/addr",
			"style": {
				"navigationBarTitleText": "收货地址",
				"enablePullDownRefresh": false
			}

		}, {
			"path": "pages/addaddr/addaddr",
			"style": {
				"navigationBarTitleText": "新增收货地址",
				"enablePullDownRefresh": false
			}

		}

		, {
			"path": "pages/my/editaddr/editaddr",
			"style": {
				"navigationBarTitleText": "编辑收货地址",
				"enablePullDownRefresh": false
			}

		}

	],
	"tabBar": {
		"color": "#7A7E83",
		"selectedColor": "#3596DE",
		"borderStyle": "black",
		"backgroundColor": "#ffffff",
		"list": [{
				"pagePath": "pages/home/home",
				"iconPath": "/static/images/tabbar/homepage.png",
				"selectedIconPath": "/static/images/tabbar/homepage-sel.png",
				"text": "首页"
			},
			{
				"pagePath": "pages/classify/classify",
				"iconPath": "/static/images/tabbar/category.png",
				"selectedIconPath": "/static/images/tabbar/category-sel.png",
				"text": "分类"
			},
			{
				"pagePath": "pages/broadcast/broadcast",
				"iconPath": "/static/images/tabbar/live.png",
				"selectedIconPath": "/static/images/tabbar/live-sel.png",
				"text": "直播"
			},
			{
				"pagePath": "pages/shop/shop",
				"iconPath": "/static/images/tabbar/basket.png",
				"selectedIconPath": "/static/images/tabbar/basket-sel.png",
				"text": "购物车"
			},
			{
				"pagePath": "pages/my/my",
				"iconPath": "/static/images/tabbar/user.png",
				"selectedIconPath": "/static/images/tabbar/user-sel.png",
				"text": "我的"
			}
		]
	},
	"subPackages": [{
			"root": "detailpkg",
			"pages": [{
				"path": "detail/detail",
				"style": {
					"navigationBarTitleText": "详情"
				}
			}, {
				"path": "submit/submit",
				"style": {
					"navigationBarTitleText": "提交订单",
					"enablePullDownRefresh": false
				}
			}]
		},
		{
			"root": "searchpkg",
			"pages": [{
					"path": "search/search",
					"style": {
						"navigationBarTitleText": "搜索"
					}
				},
				{
					"path": "result/result",
					"style": {
						"navigationBarTitleText": "搜索结果",
						"enablePullDownRefresh": false
					}
				}
			]
		},
		{
			"root": "bindingphone",
			"pages": [{
				"path": "binding/binding",
				"style": {
					"navigationBarTitleText": "绑定手机号码"
				}
			}]
		},
		{
			"root": "myorders",
			"pages": [{
				"path": "myorder/myorder",
				"style": {
					"navigationBarTitleText": "订单列表"
				}
			}]
		}


	],
	"globalStyle": {
		"navigationBarTextStyle": "black",
		"navigationBarTitleText": "uni-app",
		"navigationBarBackgroundColor": "#FFF",
		"backgroundColor": "#F8F8F8",
		"app-plus": {
			"background": "#efeff4"
		}
	}
}
